^C:\USERS\KAIDEN\SOURCE\REPOS\LEXICONANALYSER\LEXICONANALYSER\STDAFX.CPP
C:\WINDOWS\GLOBALIZATION\SORTING\SORTDEFAULT.NLS
C:\PROGRAM FILES (X86)\MICROSOFT VISUAL STUDIO\2017\COMMUNITY\VC\TOOLS\MSVC\14.11.25503\BIN\HOSTX86\X64\1033\CLUI.DLL
C:\WINDOWS\SYSTEM32\TZRES.DLL
C:\USERS\KAIDEN\SOURCE\REPOS\LEXICONANALYSER\LEXICONANALYSER\STDAFX.H
C:\USERS\KAIDEN\SOURCE\REPOS\LEXICONANALYSER\LEXICONANALYSER\TARGETVER.H
C:\PROGRAM FILES (X86)\WINDOWS KITS\10\INCLUDE\10.0.15063.0\SHARED\SDKDDKVER.H
C:\PROGRAM FILES (X86)\WINDOWS KITS\10\INCLUDE\10.0.15063.0\UCRT\STDIO.H
C:\PROGRAM FILES (X86)\WINDOWS KITS\10\INCLUDE\10.0.15063.0\UCRT\CORECRT.H
C:\PROGRAM FILES (X86)\MICROSOFT VISUAL STUDIO\2017\COMMUNITY\VC\TOOLS\MSVC\14.11.25503\INCLUDE\VCRUNTIME.H
C:\PROGRAM FILES (X86)\MICROSOFT VISUAL STUDIO\2017\COMMUNITY\VC\TOOLS\MSVC\14.11.25503\INCLUDE\SAL.H
C:\PROGRAM FILES (X86)\MICROSOFT VISUAL STUDIO\2017\COMMUNITY\VC\TOOLS\MSVC\14.11.25503\INCLUDE\CONCURRENCYSAL.H
C:\PROGRAM FILES (X86)\MICROSOFT VISUAL STUDIO\2017\COMMUNITY\VC\TOOLS\MSVC\14.11.25503\INCLUDE\VADEFS.H
C:\PROGRAM FILES (X86)\WINDOWS KITS\10\INCLUDE\10.0.15063.0\UCRT\CORECRT_WSTDIO.H
C:\PROGRAM FILES (X86)\WINDOWS KITS\10\INCLUDE\10.0.15063.0\UCRT\CORECRT_STDIO_CONFIG.H
C:\PROGRAM FILES (X86)\MICROSOFT VISUAL STUDIO\2017\COMMUNITY\VC\TOOLS\MSVC\14.11.25503\INCLUDE\IOSTREAM
C:\PROGRAM FILES (X86)\MICROSOFT VISUAL STUDIO\2017\COMMUNITY\VC\TOOLS\MSVC\14.11.25503\INCLUDE\ISTREAM
C:\PROGRAM FILES (X86)\MICROSOFT VISUAL STUDIO\2017\COMMUNITY\VC\TOOLS\MSVC\14.11.25503\INCLUDE\OSTREAM
C:\PROGRAM FILES (X86)\MICROSOFT VISUAL STUDIO\2017\COMMUNITY\VC\TOOLS\MSVC\14.11.25503\INCLUDE\IOS
C:\PROGRAM FILES (X86)\MICROSOFT VISUAL STUDIO\2017\COMMUNITY\VC\TOOLS\MSVC\14.11.25503\INCLUDE\XLOCNUM
C:\PROGRAM FILES (X86)\MICROSOFT VISUAL STUDIO\2017\COMMUNITY\VC\TOOLS\MSVC\14.11.25503\INCLUDE\CLIMITS
C:\PROGRAM FILES (X86)\MICROSOFT VISUAL STUDIO\2017\COMMUNITY\VC\TOOLS\MSVC\14.11.25503\INCLUDE\YVALS.H
C:\PROGRAM FILES (X86)\MICROSOFT VISUAL STUDIO\2017\COMMUNITY\VC\TOOLS\MSVC\14.11.25503\INCLUDE\XKEYCHECK.H
C:\PROGRAM FILES (X86)\MICROSOFT VISUAL STUDIO\2017\COMMUNITY\VC\TOOLS\MSVC\14.11.25503\INCLUDE\CRTDEFS.H
C:\PROGRAM FILES (X86)\MICROSOFT VISUAL STUDIO\2017\COMMUNITY\VC\TOOLS\MSVC\14.11.25503\INCLUDE\USE_ANSI.H
C:\PROGRAM FILES (X86)\MICROSOFT VISUAL STUDIO\2017\COMMUNITY\VC\TOOLS\MSVC\14.11.25503\INCLUDE\LIMITS.H
C:\PROGRAM FILES (X86)\MICROSOFT VISUAL STUDIO\2017\COMMUNITY\VC\TOOLS\MSVC\14.11.25503\INCLUDE\CMATH
C:\PROGRAM FILES (X86)\MICROSOFT VISUAL STUDIO\2017\COMMUNITY\VC\TOOLS\MSVC\14.11.25503\INCLUDE\CSTDLIB
C:\PROGRAM FILES (X86)\WINDOWS KITS\10\INCLUDE\10.0.15063.0\UCRT\STDLIB.H
C:\PROGRAM FILES (X86)\WINDOWS KITS\10\INCLUDE\10.0.15063.0\UCRT\CORECRT_MALLOC.H
C:\PROGRAM FILES (X86)\WINDOWS KITS\10\INCLUDE\10.0.15063.0\UCRT\CORECRT_SEARCH.H
C:\PROGRAM FILES (X86)\WINDOWS KITS\10\INCLUDE\10.0.15063.0\UCRT\STDDEF.H
C:\PROGRAM FILES (X86)\WINDOWS KITS\10\INCLUDE\10.0.15063.0\UCRT\CORECRT_WSTDLIB.H
C:\PROGRAM FILES (X86)\WINDOWS KITS\10\INCLUDE\10.0.15063.0\UCRT\MATH.H
C:\PROGRAM FILES (X86)\WINDOWS KITS\10\INCLUDE\10.0.15063.0\UCRT\CORECRT_MATH.H
C:\PROGRAM FILES (X86)\MICROSOFT VISUAL STUDIO\2017\COMMUNITY\VC\TOOLS\MSVC\14.11.25503\INCLUDE\XTGMATH.H
C:\PROGRAM FILES (X86)\MICROSOFT VISUAL STUDIO\2017\COMMUNITY\VC\TOOLS\MSVC\14.11.25503\INCLUDE\XTR1COMMON
C:\PROGRAM FILES (X86)\MICROSOFT VISUAL STUDIO\2017\COMMUNITY\VC\TOOLS\MSVC\14.11.25503\INCLUDE\CSTDIO
C:\PROGRAM FILES (X86)\MICROSOFT VISUAL STUDIO\2017\COMMUNITY\VC\TOOLS\MSVC\14.11.25503\INCLUDE\STREAMBUF
C:\PROGRAM FILES (X86)\MICROSOFT VISUAL STUDIO\2017\COMMUNITY\VC\TOOLS\MSVC\14.11.25503\INCLUDE\XIOSBASE
C:\PROGRAM FILES (X86)\MICROSOFT VISUAL STUDIO\2017\COMMUNITY\VC\TOOLS\MSVC\14.11.25503\INCLUDE\XLOCALE
C:\PROGRAM FILES (X86)\MICROSOFT VISUAL STUDIO\2017\COMMUNITY\VC\TOOLS\MSVC\14.11.25503\INCLUDE\CSTRING
C:\PROGRAM FILES (X86)\WINDOWS KITS\10\INCLUDE\10.0.15063.0\UCRT\STRING.H
C:\PROGRAM FILES (X86)\WINDOWS KITS\10\INCLUDE\10.0.15063.0\UCRT\CORECRT_MEMORY.H
C:\PROGRAM FILES (X86)\WINDOWS KITS\10\INCLUDE\10.0.15063.0\UCRT\CORECRT_MEMCPY_S.H
C:\PROGRAM FILES (X86)\WINDOWS KITS\10\INCLUDE\10.0.15063.0\UCRT\ERRNO.H
C:\PROGRAM FILES (X86)\MICROSOFT VISUAL STUDIO\2017\COMMUNITY\VC\TOOLS\MSVC\14.11.25503\INCLUDE\VCRUNTIME_STRING.H
C:\PROGRAM FILES (X86)\WINDOWS KITS\10\INCLUDE\10.0.15063.0\UCRT\CORECRT_WSTRING.H
C:\PROGRAM FILES (X86)\MICROSOFT VISUAL STUDIO\2017\COMMUNITY\VC\TOOLS\MSVC\14.11.25503\INCLUDE\STDEXCEPT
C:\PROGRAM FILES (X86)\MICROSOFT VISUAL STUDIO\2017\COMMUNITY\VC\TOOLS\MSVC\14.11.25503\INCLUDE\EXCEPTION
C:\PROGRAM FILES (X86)\MICROSOFT VISUAL STUDIO\2017\COMMUNITY\VC\TOOLS\MSVC\14.11.25503\INCLUDE\TYPE_TRAITS
C:\PROGRAM FILES (X86)\MICROSOFT VISUAL STUDIO\2017\COMMUNITY\VC\TOOLS\MSVC\14.11.25503\INCLUDE\XSTDDEF
C:\PROGRAM FILES (X86)\MICROSOFT VISUAL STUDIO\2017\COMMUNITY\VC\TOOLS\MSVC\14.11.25503\INCLUDE\CSTDDEF
C:\PROGRAM FILES (X86)\MICROSOFT VISUAL STUDIO\2017\COMMUNITY\VC\TOOLS\MSVC\14.11.25503\INCLUDE\INITIALIZER_LIST
C:\PROGRAM FILES (X86)\WINDOWS KITS\10\INCLUDE\10.0.15063.0\UCRT\MALLOC.H
C:\PROGRAM FILES (X86)\MICROSOFT VISUAL STUDIO\2017\COMMUNITY\VC\TOOLS\MSVC\14.11.25503\INCLUDE\VCRUNTIME_EXCEPTION.H
C:\PROGRAM FILES (X86)\MICROSOFT VISUAL STUDIO\2017\COMMUNITY\VC\TOOLS\MSVC\14.11.25503\INCLUDE\EH.H
C:\PROGRAM FILES (X86)\WINDOWS KITS\10\INCLUDE\10.0.15063.0\UCRT\CORECRT_TERMINATE.H
C:\PROGRAM FILES (X86)\MICROSOFT VISUAL STUDIO\2017\COMMUNITY\VC\TOOLS\MSVC\14.11.25503\INCLUDE\XSTRING
C:\PROGRAM FILES (X86)\MICROSOFT VISUAL STUDIO\2017\COMMUNITY\VC\TOOLS\MSVC\14.11.25503\INCLUDE\XMEMORY0
C:\PROGRAM FILES (X86)\MICROSOFT VISUAL STUDIO\2017\COMMUNITY\VC\TOOLS\MSVC\14.11.25503\INCLUDE\CSTDINT
C:\PROGRAM FILES (X86)\MICROSOFT VISUAL STUDIO\2017\COMMUNITY\VC\TOOLS\MSVC\14.11.25503\INCLUDE\STDINT.H
C:\PROGRAM FILES (X86)\MICROSOFT VISUAL STUDIO\2017\COMMUNITY\VC\TOOLS\MSVC\14.11.25503\INCLUDE\LIMITS
C:\PROGRAM FILES (X86)\MICROSOFT VISUAL STUDIO\2017\COMMUNITY\VC\TOOLS\MSVC\14.11.25503\INCLUDE\YMATH.H
C:\PROGRAM FILES (X86)\MICROSOFT VISUAL STUDIO\2017\COMMUNITY\VC\TOOLS\MSVC\14.11.25503\INCLUDE\CFLOAT
C:\PROGRAM FILES (X86)\WINDOWS KITS\10\INCLUDE\10.0.15063.0\UCRT\FLOAT.H
C:\PROGRAM FILES (X86)\MICROSOFT VISUAL STUDIO\2017\COMMUNITY\VC\TOOLS\MSVC\14.11.25503\INCLUDE\CWCHAR
C:\PROGRAM FILES (X86)\WINDOWS KITS\10\INCLUDE\10.0.15063.0\UCRT\WCHAR.H
C:\PROGRAM FILES (X86)\WINDOWS KITS\10\INCLUDE\10.0.15063.0\UCRT\CORECRT_WCONIO.H
C:\PROGRAM FILES (X86)\WINDOWS KITS\10\INCLUDE\10.0.15063.0\UCRT\CORECRT_WCTYPE.H
C:\PROGRAM FILES (X86)\WINDOWS KITS\10\INCLUDE\10.0.15063.0\UCRT\CORECRT_WDIRECT.H
C:\PROGRAM FILES (X86)\WINDOWS KITS\10\INCLUDE\10.0.15063.0\UCRT\CORECRT_WIO.H
C:\PROGRAM FILES (X86)\WINDOWS KITS\10\INCLUDE\10.0.15063.0\UCRT\CORECRT_SHARE.H
C:\PROGRAM FILES (X86)\WINDOWS KITS\10\INCLUDE\10.0.15063.0\UCRT\CORECRT_WPROCESS.H
C:\PROGRAM FILES (X86)\WINDOWS KITS\10\INCLUDE\10.0.15063.0\UCRT\CORECRT_WTIME.H
C:\PROGRAM FILES (X86)\WINDOWS KITS\10\INCLUDE\10.0.15063.0\UCRT\SYS\STAT.H
C:\PROGRAM FILES (X86)\WINDOWS KITS\10\INCLUDE\10.0.15063.0\UCRT\SYS\TYPES.H
C:\PROGRAM FILES (X86)\MICROSOFT VISUAL STUDIO\2017\COMMUNITY\VC\TOOLS\MSVC\14.11.25503\INCLUDE\NEW
C:\PROGRAM FILES (X86)\MICROSOFT VISUAL STUDIO\2017\COMMUNITY\VC\TOOLS\MSVC\14.11.25503\INCLUDE\VCRUNTIME_NEW.H
C:\PROGRAM FILES (X86)\MICROSOFT VISUAL STUDIO\2017\COMMUNITY\VC\TOOLS\MSVC\14.11.25503\INCLUDE\XUTILITY
C:\PROGRAM FILES (X86)\MICROSOFT VISUAL STUDIO\2017\COMMUNITY\VC\TOOLS\MSVC\14.11.25503\INCLUDE\UTILITY
C:\PROGRAM FILES (X86)\MICROSOFT VISUAL STUDIO\2017\COMMUNITY\VC\TOOLS\MSVC\14.11.25503\INCLUDE\IOSFWD
C:\PROGRAM FILES (X86)\WINDOWS KITS\10\INCLUDE\10.0.15063.0\UCRT\CRTDBG.H
C:\PROGRAM FILES (X86)\MICROSOFT VISUAL STUDIO\2017\COMMUNITY\VC\TOOLS\MSVC\14.11.25503\INCLUDE\VCRUNTIME_NEW_DEBUG.H
C:\PROGRAM FILES (X86)\MICROSOFT VISUAL STUDIO\2017\COMMUNITY\VC\TOOLS\MSVC\14.11.25503\INCLUDE\XATOMIC0.H
C:\PROGRAM FILES (X86)\MICROSOFT VISUAL STUDIO\2017\COMMUNITY\VC\TOOLS\MSVC\14.11.25503\INCLUDE\INTRIN0.H
C:\PROGRAM FILES (X86)\MICROSOFT VISUAL STUDIO\2017\COMMUNITY\VC\TOOLS\MSVC\14.11.25503\INCLUDE\TYPEINFO
C:\PROGRAM FILES (X86)\MICROSOFT VISUAL STUDIO\2017\COMMUNITY\VC\TOOLS\MSVC\14.11.25503\INCLUDE\VCRUNTIME_TYPEINFO.H
C:\PROGRAM FILES (X86)\MICROSOFT VISUAL STUDIO\2017\COMMUNITY\VC\TOOLS\MSVC\14.11.25503\INCLUDE\XLOCINFO
C:\PROGRAM FILES (X86)\MICROSOFT VISUAL STUDIO\2017\COMMUNITY\VC\TOOLS\MSVC\14.11.25503\INCLUDE\XLOCINFO.H
C:\PROGRAM FILES (X86)\WINDOWS KITS\10\INCLUDE\10.0.15063.0\UCRT\CTYPE.H
C:\PROGRAM FILES (X86)\WINDOWS KITS\10\INCLUDE\10.0.15063.0\UCRT\LOCALE.H
C:\PROGRAM FILES (X86)\MICROSOFT VISUAL STUDIO\2017\COMMUNITY\VC\TOOLS\MSVC\14.11.25503\INCLUDE\XFACET
C:\PROGRAM FILES (X86)\MICROSOFT VISUAL STUDIO\2017\COMMUNITY\VC\TOOLS\MSVC\14.11.25503\INCLUDE\SYSTEM_ERROR
C:\PROGRAM FILES (X86)\MICROSOFT VISUAL STUDIO\2017\COMMUNITY\VC\TOOLS\MSVC\14.11.25503\INCLUDE\CERRNO
C:\PROGRAM FILES (X86)\MICROSOFT VISUAL STUDIO\2017\COMMUNITY\VC\TOOLS\MSVC\14.11.25503\INCLUDE\XCALL_ONCE.H
C:\PROGRAM FILES (X86)\WINDOWS KITS\10\INCLUDE\10.0.15063.0\UCRT\SHARE.H
C:\PROGRAM FILES (X86)\MICROSOFT VISUAL STUDIO\2017\COMMUNITY\VC\TOOLS\MSVC\14.11.25503\INCLUDE\STRING
C:\PROGRAM FILES (X86)\MICROSOFT VISUAL STUDIO\2017\COMMUNITY\VC\TOOLS\MSVC\14.11.25503\INCLUDE\XSTRING_INSERT.H
C:\PROGRAM FILES (X86)\MICROSOFT VISUAL STUDIO\2017\COMMUNITY\VC\TOOLS\MSVC\14.11.25503\INCLUDE\SSTREAM
C:\PROGRAM FILES (X86)\MICROSOFT VISUAL STUDIO\2017\COMMUNITY\VC\TOOLS\MSVC\14.11.25503\INCLUDE\VECTOR
C:\PROGRAM FILES (X86)\MICROSOFT VISUAL STUDIO\2017\COMMUNITY\VC\TOOLS\MSVC\14.11.25503\INCLUDE\XMEMORY
^C:\USERS\KAIDEN\SOURCE\REPOS\LEXICONANALYSER\LEXICONANALYSER\CHARS.CPP
C:\USERS\KAIDEN\SOURCE\REPOS\LEXICONANALYSER\LEXICONANALYSER\X64\RELEASE\LEXICONANALYSER.PCH
C:\USERS\KAIDEN\SOURCE\REPOS\LEXICONANALYSER\LEXICONANALYSER\CHARS.H
^C:\USERS\KAIDEN\SOURCE\REPOS\LEXICONANALYSER\LEXICONANALYSER\COLUMNCOLUMNPARAMETERS.CPP
C:\USERS\KAIDEN\SOURCE\REPOS\LEXICONANALYSER\LEXICONANALYSER\X64\RELEASE\LEXICONANALYSER.PCH
C:\USERS\KAIDEN\SOURCE\REPOS\LEXICONANALYSER\LEXICONANALYSER\COLUMNCOLUMNPARAMETERS.H
C:\USERS\KAIDEN\SOURCE\REPOS\LEXICONANALYSER\LEXICONANALYSER\COLUMNPARAMETERS.H
^C:\USERS\KAIDEN\SOURCE\REPOS\LEXICONANALYSER\LEXICONANALYSER\COLUMNPARAMETERS.CPP
C:\USERS\KAIDEN\SOURCE\REPOS\LEXICONANALYSER\LEXICONANALYSER\X64\RELEASE\LEXICONANALYSER.PCH
C:\USERS\KAIDEN\SOURCE\REPOS\LEXICONANALYSER\LEXICONANALYSER\COLUMNPARAMETERS.H
^C:\USERS\KAIDEN\SOURCE\REPOS\LEXICONANALYSER\LEXICONANALYSER\COLUMNVALUEPARAMETERS.CPP
C:\USERS\KAIDEN\SOURCE\REPOS\LEXICONANALYSER\LEXICONANALYSER\X64\RELEASE\LEXICONANALYSER.PCH
C:\USERS\KAIDEN\SOURCE\REPOS\LEXICONANALYSER\LEXICONANALYSER\COLUMNVALUEPARAMETERS.H
C:\USERS\KAIDEN\SOURCE\REPOS\LEXICONANALYSER\LEXICONANALYSER\COLUMNPARAMETERS.H
^C:\USERS\KAIDEN\SOURCE\REPOS\LEXICONANALYSER\LEXICONANALYSER\DATALOGPARSER.CPP
C:\USERS\KAIDEN\SOURCE\REPOS\LEXICONANALYSER\LEXICONANALYSER\X64\RELEASE\LEXICONANALYSER.PCH
C:\USERS\KAIDEN\SOURCE\REPOS\LEXICONANALYSER\LEXICONANALYSER\DATALOGPARSER.H
C:\USERS\KAIDEN\SOURCE\REPOS\LEXICONANALYSER\LEXICONANALYSER\LEXER.H
C:\USERS\KAIDEN\SOURCE\REPOS\LEXICONANALYSER\LEXICONANALYSER\TOKEN.H
C:\USERS\KAIDEN\SOURCE\REPOS\LEXICONANALYSER\LEXICONANALYSER\CHARS.H
C:\USERS\KAIDEN\SOURCE\REPOS\LEXICONANALYSER\LEXICONANALYSER\SCHEMES.H
C:\USERS\KAIDEN\SOURCE\REPOS\LEXICONANALYSER\LEXICONANALYSER\SCHEME.H
C:\USERS\KAIDEN\SOURCE\REPOS\LEXICONANALYSER\LEXICONANALYSER\ID.H
C:\USERS\KAIDEN\SOURCE\REPOS\LEXICONANALYSER\LEXICONANALYSER\IDLIST.H
C:\USERS\KAIDEN\SOURCE\REPOS\LEXICONANALYSER\LEXICONANALYSER\FACTS.H
C:\USERS\KAIDEN\SOURCE\REPOS\LEXICONANALYSER\LEXICONANALYSER\FACT.H
C:\USERS\KAIDEN\SOURCE\REPOS\LEXICONANALYSER\LEXICONANALYSER\STRING.H
C:\USERS\KAIDEN\SOURCE\REPOS\LEXICONANALYSER\LEXICONANALYSER\STRINGLIST.H
C:\PROGRAM FILES (X86)\MICROSOFT VISUAL STUDIO\2017\COMMUNITY\VC\TOOLS\MSVC\14.11.25503\INCLUDE\ALGORITHM
C:\USERS\KAIDEN\SOURCE\REPOS\LEXICONANALYSER\LEXICONANALYSER\RULES.H
C:\USERS\KAIDEN\SOURCE\REPOS\LEXICONANALYSER\LEXICONANALYSER\RULE.H
C:\USERS\KAIDEN\SOURCE\REPOS\LEXICONANALYSER\LEXICONANALYSER\HEADPREDICATE.H
C:\USERS\KAIDEN\SOURCE\REPOS\LEXICONANALYSER\LEXICONANALYSER\PREDICATE.H
C:\USERS\KAIDEN\SOURCE\REPOS\LEXICONANALYSER\LEXICONANALYSER\PARAMETERLIST.H
C:\USERS\KAIDEN\SOURCE\REPOS\LEXICONANALYSER\LEXICONANALYSER\PARAMETER.H
C:\USERS\KAIDEN\SOURCE\REPOS\LEXICONANALYSER\LEXICONANALYSER\PREDICATELIST.H
C:\USERS\KAIDEN\SOURCE\REPOS\LEXICONANALYSER\LEXICONANALYSER\EXPRESSION.H
C:\USERS\KAIDEN\SOURCE\REPOS\LEXICONANALYSER\LEXICONANALYSER\QUERIES.H
C:\USERS\KAIDEN\SOURCE\REPOS\LEXICONANALYSER\LEXICONANALYSER\QUERY.H
^C:\USERS\KAIDEN\SOURCE\REPOS\LEXICONANALYSER\LEXICONANALYSER\EXPRESSION.CPP
C:\USERS\KAIDEN\SOURCE\REPOS\LEXICONANALYSER\LEXICONANALYSER\X64\RELEASE\LEXICONANALYSER.PCH
C:\USERS\KAIDEN\SOURCE\REPOS\LEXICONANALYSER\LEXICONANALYSER\EXPRESSION.H
C:\USERS\KAIDEN\SOURCE\REPOS\LEXICONANALYSER\LEXICONANALYSER\PARAMETER.H
C:\USERS\KAIDEN\SOURCE\REPOS\LEXICONANALYSER\LEXICONANALYSER\STRING.H
C:\USERS\KAIDEN\SOURCE\REPOS\LEXICONANALYSER\LEXICONANALYSER\LEXER.H
C:\USERS\KAIDEN\SOURCE\REPOS\LEXICONANALYSER\LEXICONANALYSER\TOKEN.H
C:\USERS\KAIDEN\SOURCE\REPOS\LEXICONANALYSER\LEXICONANALYSER\CHARS.H
C:\USERS\KAIDEN\SOURCE\REPOS\LEXICONANALYSER\LEXICONANALYSER\ID.H
^C:\USERS\KAIDEN\SOURCE\REPOS\LEXICONANALYSER\LEXICONANALYSER\FACT.CPP
C:\USERS\KAIDEN\SOURCE\REPOS\LEXICONANALYSER\LEXICONANALYSER\X64\RELEASE\LEXICONANALYSER.PCH
C:\USERS\KAIDEN\SOURCE\REPOS\LEXICONANALYSER\LEXICONANALYSER\FACT.H
C:\USERS\KAIDEN\SOURCE\REPOS\LEXICONANALYSER\LEXICONANALYSER\ID.H
C:\USERS\KAIDEN\SOURCE\REPOS\LEXICONANALYSER\LEXICONANALYSER\LEXER.H
C:\USERS\KAIDEN\SOURCE\REPOS\LEXICONANALYSER\LEXICONANALYSER\TOKEN.H
C:\USERS\KAIDEN\SOURCE\REPOS\LEXICONANALYSER\LEXICONANALYSER\CHARS.H
C:\USERS\KAIDEN\SOURCE\REPOS\LEXICONANALYSER\LEXICONANALYSER\STRING.H
C:\USERS\KAIDEN\SOURCE\REPOS\LEXICONANALYSER\LEXICONANALYSER\STRINGLIST.H
^C:\USERS\KAIDEN\SOURCE\REPOS\LEXICONANALYSER\LEXICONANALYSER\FACTS.CPP
C:\USERS\KAIDEN\SOURCE\REPOS\LEXICONANALYSER\LEXICONANALYSER\X64\RELEASE\LEXICONANALYSER.PCH
C:\USERS\KAIDEN\SOURCE\REPOS\LEXICONANALYSER\LEXICONANALYSER\FACTS.H
C:\USERS\KAIDEN\SOURCE\REPOS\LEXICONANALYSER\LEXICONANALYSER\FACT.H
C:\USERS\KAIDEN\SOURCE\REPOS\LEXICONANALYSER\LEXICONANALYSER\ID.H
C:\USERS\KAIDEN\SOURCE\REPOS\LEXICONANALYSER\LEXICONANALYSER\LEXER.H
C:\USERS\KAIDEN\SOURCE\REPOS\LEXICONANALYSER\LEXICONANALYSER\TOKEN.H
C:\USERS\KAIDEN\SOURCE\REPOS\LEXICONANALYSER\LEXICONANALYSER\CHARS.H
C:\USERS\KAIDEN\SOURCE\REPOS\LEXICONANALYSER\LEXICONANALYSER\STRING.H
C:\USERS\KAIDEN\SOURCE\REPOS\LEXICONANALYSER\LEXICONANALYSER\STRINGLIST.H
C:\PROGRAM FILES (X86)\MICROSOFT VISUAL STUDIO\2017\COMMUNITY\VC\TOOLS\MSVC\14.11.25503\INCLUDE\ALGORITHM
^C:\USERS\KAIDEN\SOURCE\REPOS\LEXICONANALYSER\LEXICONANALYSER\HEADERS.CPP
C:\USERS\KAIDEN\SOURCE\REPOS\LEXICONANALYSER\LEXICONANALYSER\X64\RELEASE\LEXICONANALYSER.PCH
C:\USERS\KAIDEN\SOURCE\REPOS\LEXICONANALYSER\LEXICONANALYSER\HEADERS.H
C:\PROGRAM FILES (X86)\MICROSOFT VISUAL STUDIO\2017\COMMUNITY\VC\TOOLS\MSVC\14.11.25503\INCLUDE\SET
C:\PROGRAM FILES (X86)\MICROSOFT VISUAL STUDIO\2017\COMMUNITY\VC\TOOLS\MSVC\14.11.25503\INCLUDE\XTREE
C:\USERS\KAIDEN\SOURCE\REPOS\LEXICONANALYSER\LEXICONANALYSER\COLUMNCOLUMNPARAMETERS.H
C:\USERS\KAIDEN\SOURCE\REPOS\LEXICONANALYSER\LEXICONANALYSER\COLUMNPARAMETERS.H
^C:\USERS\KAIDEN\SOURCE\REPOS\LEXICONANALYSER\LEXICONANALYSER\HEADPREDICATE.CPP
C:\USERS\KAIDEN\SOURCE\REPOS\LEXICONANALYSER\LEXICONANALYSER\X64\RELEASE\LEXICONANALYSER.PCH
C:\USERS\KAIDEN\SOURCE\REPOS\LEXICONANALYSER\LEXICONANALYSER\HEADPREDICATE.H
C:\USERS\KAIDEN\SOURCE\REPOS\LEXICONANALYSER\LEXICONANALYSER\ID.H
C:\USERS\KAIDEN\SOURCE\REPOS\LEXICONANALYSER\LEXICONANALYSER\LEXER.H
C:\USERS\KAIDEN\SOURCE\REPOS\LEXICONANALYSER\LEXICONANALYSER\TOKEN.H
C:\USERS\KAIDEN\SOURCE\REPOS\LEXICONANALYSER\LEXICONANALYSER\CHARS.H
C:\USERS\KAIDEN\SOURCE\REPOS\LEXICONANALYSER\LEXICONANALYSER\IDLIST.H
^C:\USERS\KAIDEN\SOURCE\REPOS\LEXICONANALYSER\LEXICONANALYSER\ID.CPP
C:\USERS\KAIDEN\SOURCE\REPOS\LEXICONANALYSER\LEXICONANALYSER\X64\RELEASE\LEXICONANALYSER.PCH
C:\USERS\KAIDEN\SOURCE\REPOS\LEXICONANALYSER\LEXICONANALYSER\ID.H
C:\USERS\KAIDEN\SOURCE\REPOS\LEXICONANALYSER\LEXICONANALYSER\LEXER.H
C:\USERS\KAIDEN\SOURCE\REPOS\LEXICONANALYSER\LEXICONANALYSER\TOKEN.H
C:\USERS\KAIDEN\SOURCE\REPOS\LEXICONANALYSER\LEXICONANALYSER\CHARS.H
^C:\USERS\KAIDEN\SOURCE\REPOS\LEXICONANALYSER\LEXICONANALYSER\IDLIST.CPP
C:\USERS\KAIDEN\SOURCE\REPOS\LEXICONANALYSER\LEXICONANALYSER\X64\RELEASE\LEXICONANALYSER.PCH
C:\USERS\KAIDEN\SOURCE\REPOS\LEXICONANALYSER\LEXICONANALYSER\IDLIST.H
C:\USERS\KAIDEN\SOURCE\REPOS\LEXICONANALYSER\LEXICONANALYSER\ID.H
C:\USERS\KAIDEN\SOURCE\REPOS\LEXICONANALYSER\LEXICONANALYSER\LEXER.H
C:\USERS\KAIDEN\SOURCE\REPOS\LEXICONANALYSER\LEXICONANALYSER\TOKEN.H
C:\USERS\KAIDEN\SOURCE\REPOS\LEXICONANALYSER\LEXICONANALYSER\CHARS.H
^C:\USERS\KAIDEN\SOURCE\REPOS\LEXICONANALYSER\LEXICONANALYSER\LEXER.CPP
C:\USERS\KAIDEN\SOURCE\REPOS\LEXICONANALYSER\LEXICONANALYSER\X64\RELEASE\LEXICONANALYSER.PCH
C:\USERS\KAIDEN\SOURCE\REPOS\LEXICONANALYSER\LEXICONANALYSER\LEXER.H
C:\USERS\KAIDEN\SOURCE\REPOS\LEXICONANALYSER\LEXICONANALYSER\TOKEN.H
C:\USERS\KAIDEN\SOURCE\REPOS\LEXICONANALYSER\LEXICONANALYSER\CHARS.H
^C:\USERS\KAIDEN\SOURCE\REPOS\LEXICONANALYSER\LEXICONANALYSER\LEXICONANALYSER.CPP
C:\USERS\KAIDEN\SOURCE\REPOS\LEXICONANALYSER\LEXICONANALYSER\X64\RELEASE\LEXICONANALYSER.PCH
C:\USERS\KAIDEN\SOURCE\REPOS\LEXICONANALYSER\LEXICONANALYSER\TOKEN.H
C:\USERS\KAIDEN\SOURCE\REPOS\LEXICONANALYSER\LEXICONANALYSER\LEXER.H
C:\USERS\KAIDEN\SOURCE\REPOS\LEXICONANALYSER\LEXICONANALYSER\CHARS.H
C:\USERS\KAIDEN\SOURCE\REPOS\LEXICONANALYSER\LEXICONANALYSER\DATALOGPARSER.H
C:\USERS\KAIDEN\SOURCE\REPOS\LEXICONANALYSER\LEXICONANALYSER\SCHEMES.H
C:\USERS\KAIDEN\SOURCE\REPOS\LEXICONANALYSER\LEXICONANALYSER\SCHEME.H
C:\USERS\KAIDEN\SOURCE\REPOS\LEXICONANALYSER\LEXICONANALYSER\ID.H
C:\USERS\KAIDEN\SOURCE\REPOS\LEXICONANALYSER\LEXICONANALYSER\IDLIST.H
C:\USERS\KAIDEN\SOURCE\REPOS\LEXICONANALYSER\LEXICONANALYSER\FACTS.H
C:\USERS\KAIDEN\SOURCE\REPOS\LEXICONANALYSER\LEXICONANALYSER\FACT.H
C:\USERS\KAIDEN\SOURCE\REPOS\LEXICONANALYSER\LEXICONANALYSER\STRING.H
C:\USERS\KAIDEN\SOURCE\REPOS\LEXICONANALYSER\LEXICONANALYSER\STRINGLIST.H
C:\PROGRAM FILES (X86)\MICROSOFT VISUAL STUDIO\2017\COMMUNITY\VC\TOOLS\MSVC\14.11.25503\INCLUDE\ALGORITHM
C:\USERS\KAIDEN\SOURCE\REPOS\LEXICONANALYSER\LEXICONANALYSER\RULES.H
C:\USERS\KAIDEN\SOURCE\REPOS\LEXICONANALYSER\LEXICONANALYSER\RULE.H
C:\USERS\KAIDEN\SOURCE\REPOS\LEXICONANALYSER\LEXICONANALYSER\HEADPREDICATE.H
C:\USERS\KAIDEN\SOURCE\REPOS\LEXICONANALYSER\LEXICONANALYSER\PREDICATE.H
C:\USERS\KAIDEN\SOURCE\REPOS\LEXICONANALYSER\LEXICONANALYSER\PARAMETERLIST.H
C:\USERS\KAIDEN\SOURCE\REPOS\LEXICONANALYSER\LEXICONANALYSER\PARAMETER.H
C:\USERS\KAIDEN\SOURCE\REPOS\LEXICONANALYSER\LEXICONANALYSER\PREDICATELIST.H
C:\USERS\KAIDEN\SOURCE\REPOS\LEXICONANALYSER\LEXICONANALYSER\EXPRESSION.H
C:\USERS\KAIDEN\SOURCE\REPOS\LEXICONANALYSER\LEXICONANALYSER\QUERIES.H
C:\USERS\KAIDEN\SOURCE\REPOS\LEXICONANALYSER\LEXICONANALYSER\QUERY.H
C:\USERS\KAIDEN\SOURCE\REPOS\LEXICONANALYSER\LEXICONANALYSER\RELATIONALDATABASE.H
C:\PROGRAM FILES (X86)\MICROSOFT VISUAL STUDIO\2017\COMMUNITY\VC\TOOLS\MSVC\14.11.25503\INCLUDE\MAP
C:\PROGRAM FILES (X86)\MICROSOFT VISUAL STUDIO\2017\COMMUNITY\VC\TOOLS\MSVC\14.11.25503\INCLUDE\TUPLE
C:\PROGRAM FILES (X86)\MICROSOFT VISUAL STUDIO\2017\COMMUNITY\VC\TOOLS\MSVC\14.11.25503\INCLUDE\XTREE
C:\PROGRAM FILES (X86)\MICROSOFT VISUAL STUDIO\2017\COMMUNITY\VC\TOOLS\MSVC\14.11.25503\INCLUDE\FSTREAM
C:\USERS\KAIDEN\SOURCE\REPOS\LEXICONANALYSER\LEXICONANALYSER\TABLE.H
C:\PROGRAM FILES (X86)\MICROSOFT VISUAL STUDIO\2017\COMMUNITY\VC\TOOLS\MSVC\14.11.25503\INCLUDE\SET
C:\USERS\KAIDEN\SOURCE\REPOS\LEXICONANALYSER\LEXICONANALYSER\ROW.H
C:\USERS\KAIDEN\SOURCE\REPOS\LEXICONANALYSER\LEXICONANALYSER\COLUMNCOLUMNPARAMETERS.H
C:\USERS\KAIDEN\SOURCE\REPOS\LEXICONANALYSER\LEXICONANALYSER\COLUMNPARAMETERS.H
C:\USERS\KAIDEN\SOURCE\REPOS\LEXICONANALYSER\LEXICONANALYSER\HEADERS.H
C:\USERS\KAIDEN\SOURCE\REPOS\LEXICONANALYSER\LEXICONANALYSER\COLUMNVALUEPARAMETERS.H
^C:\USERS\KAIDEN\SOURCE\REPOS\LEXICONANALYSER\LEXICONANALYSER\PARAMETER.CPP
C:\USERS\KAIDEN\SOURCE\REPOS\LEXICONANALYSER\LEXICONANALYSER\X64\RELEASE\LEXICONANALYSER.PCH
C:\USERS\KAIDEN\SOURCE\REPOS\LEXICONANALYSER\LEXICONANALYSER\PARAMETER.H
C:\USERS\KAIDEN\SOURCE\REPOS\LEXICONANALYSER\LEXICONANALYSER\STRING.H
C:\USERS\KAIDEN\SOURCE\REPOS\LEXICONANALYSER\LEXICONANALYSER\LEXER.H
C:\USERS\KAIDEN\SOURCE\REPOS\LEXICONANALYSER\LEXICONANALYSER\TOKEN.H
C:\USERS\KAIDEN\SOURCE\REPOS\LEXICONANALYSER\LEXICONANALYSER\CHARS.H
C:\USERS\KAIDEN\SOURCE\REPOS\LEXICONANALYSER\LEXICONANALYSER\ID.H
C:\USERS\KAIDEN\SOURCE\REPOS\LEXICONANALYSER\LEXICONANALYSER\EXPRESSION.H
^C:\USERS\KAIDEN\SOURCE\REPOS\LEXICONANALYSER\LEXICONANALYSER\PARAMETERLIST.CPP
C:\USERS\KAIDEN\SOURCE\REPOS\LEXICONANALYSER\LEXICONANALYSER\X64\RELEASE\LEXICONANALYSER.PCH
C:\USERS\KAIDEN\SOURCE\REPOS\LEXICONANALYSER\LEXICONANALYSER\PARAMETERLIST.H
C:\USERS\KAIDEN\SOURCE\REPOS\LEXICONANALYSER\LEXICONANALYSER\PARAMETER.H
C:\USERS\KAIDEN\SOURCE\REPOS\LEXICONANALYSER\LEXICONANALYSER\STRING.H
C:\USERS\KAIDEN\SOURCE\REPOS\LEXICONANALYSER\LEXICONANALYSER\LEXER.H
C:\USERS\KAIDEN\SOURCE\REPOS\LEXICONANALYSER\LEXICONANALYSER\TOKEN.H
C:\USERS\KAIDEN\SOURCE\REPOS\LEXICONANALYSER\LEXICONANALYSER\CHARS.H
C:\USERS\KAIDEN\SOURCE\REPOS\LEXICONANALYSER\LEXICONANALYSER\ID.H
^C:\USERS\KAIDEN\SOURCE\REPOS\LEXICONANALYSER\LEXICONANALYSER\PREDICATE.CPP
C:\USERS\KAIDEN\SOURCE\REPOS\LEXICONANALYSER\LEXICONANALYSER\X64\RELEASE\LEXICONANALYSER.PCH
C:\USERS\KAIDEN\SOURCE\REPOS\LEXICONANALYSER\LEXICONANALYSER\PREDICATE.H
C:\USERS\KAIDEN\SOURCE\REPOS\LEXICONANALYSER\LEXICONANALYSER\ID.H
C:\USERS\KAIDEN\SOURCE\REPOS\LEXICONANALYSER\LEXICONANALYSER\LEXER.H
C:\USERS\KAIDEN\SOURCE\REPOS\LEXICONANALYSER\LEXICONANALYSER\TOKEN.H
C:\USERS\KAIDEN\SOURCE\REPOS\LEXICONANALYSER\LEXICONANALYSER\CHARS.H
C:\USERS\KAIDEN\SOURCE\REPOS\LEXICONANALYSER\LEXICONANALYSER\PARAMETERLIST.H
C:\USERS\KAIDEN\SOURCE\REPOS\LEXICONANALYSER\LEXICONANALYSER\PARAMETER.H
C:\USERS\KAIDEN\SOURCE\REPOS\LEXICONANALYSER\LEXICONANALYSER\STRING.H
^C:\USERS\KAIDEN\SOURCE\REPOS\LEXICONANALYSER\LEXICONANALYSER\PREDICATELIST.CPP
C:\USERS\KAIDEN\SOURCE\REPOS\LEXICONANALYSER\LEXICONANALYSER\X64\RELEASE\LEXICONANALYSER.PCH
C:\USERS\KAIDEN\SOURCE\REPOS\LEXICONANALYSER\LEXICONANALYSER\PREDICATELIST.H
C:\USERS\KAIDEN\SOURCE\REPOS\LEXICONANALYSER\LEXICONANALYSER\PREDICATE.H
C:\USERS\KAIDEN\SOURCE\REPOS\LEXICONANALYSER\LEXICONANALYSER\ID.H
C:\USERS\KAIDEN\SOURCE\REPOS\LEXICONANALYSER\LEXICONANALYSER\LEXER.H
C:\USERS\KAIDEN\SOURCE\REPOS\LEXICONANALYSER\LEXICONANALYSER\TOKEN.H
C:\USERS\KAIDEN\SOURCE\REPOS\LEXICONANALYSER\LEXICONANALYSER\CHARS.H
C:\USERS\KAIDEN\SOURCE\REPOS\LEXICONANALYSER\LEXICONANALYSER\PARAMETERLIST.H
C:\USERS\KAIDEN\SOURCE\REPOS\LEXICONANALYSER\LEXICONANALYSER\PARAMETER.H
C:\USERS\KAIDEN\SOURCE\REPOS\LEXICONANALYSER\LEXICONANALYSER\STRING.H
^C:\USERS\KAIDEN\SOURCE\REPOS\LEXICONANALYSER\LEXICONANALYSER\QUERIES.CPP
C:\USERS\KAIDEN\SOURCE\REPOS\LEXICONANALYSER\LEXICONANALYSER\X64\RELEASE\LEXICONANALYSER.PCH
C:\USERS\KAIDEN\SOURCE\REPOS\LEXICONANALYSER\LEXICONANALYSER\QUERIES.H
C:\USERS\KAIDEN\SOURCE\REPOS\LEXICONANALYSER\LEXICONANALYSER\QUERY.H
C:\USERS\KAIDEN\SOURCE\REPOS\LEXICONANALYSER\LEXICONANALYSER\PREDICATE.H
C:\USERS\KAIDEN\SOURCE\REPOS\LEXICONANALYSER\LEXICONANALYSER\ID.H
C:\USERS\KAIDEN\SOURCE\REPOS\LEXICONANALYSER\LEXICONANALYSER\LEXER.H
C:\USERS\KAIDEN\SOURCE\REPOS\LEXICONANALYSER\LEXICONANALYSER\TOKEN.H
C:\USERS\KAIDEN\SOURCE\REPOS\LEXICONANALYSER\LEXICONANALYSER\CHARS.H
C:\USERS\KAIDEN\SOURCE\REPOS\LEXICONANALYSER\LEXICONANALYSER\PARAMETERLIST.H
C:\USERS\KAIDEN\SOURCE\REPOS\LEXICONANALYSER\LEXICONANALYSER\PARAMETER.H
C:\USERS\KAIDEN\SOURCE\REPOS\LEXICONANALYSER\LEXICONANALYSER\STRING.H
C:\USERS\KAIDEN\SOURCE\REPOS\LEXICONANALYSER\LEXICONANALYSER\PREDICATELIST.H
C:\USERS\KAIDEN\SOURCE\REPOS\LEXICONANALYSER\LEXICONANALYSER\HEADPREDICATE.H
C:\USERS\KAIDEN\SOURCE\REPOS\LEXICONANALYSER\LEXICONANALYSER\IDLIST.H
C:\USERS\KAIDEN\SOURCE\REPOS\LEXICONANALYSER\LEXICONANALYSER\EXPRESSION.H
^C:\USERS\KAIDEN\SOURCE\REPOS\LEXICONANALYSER\LEXICONANALYSER\QUERY.CPP
C:\USERS\KAIDEN\SOURCE\REPOS\LEXICONANALYSER\LEXICONANALYSER\X64\RELEASE\LEXICONANALYSER.PCH
C:\USERS\KAIDEN\SOURCE\REPOS\LEXICONANALYSER\LEXICONANALYSER\QUERY.H
C:\USERS\KAIDEN\SOURCE\REPOS\LEXICONANALYSER\LEXICONANALYSER\PREDICATE.H
C:\USERS\KAIDEN\SOURCE\REPOS\LEXICONANALYSER\LEXICONANALYSER\ID.H
C:\USERS\KAIDEN\SOURCE\REPOS\LEXICONANALYSER\LEXICONANALYSER\LEXER.H
C:\USERS\KAIDEN\SOURCE\REPOS\LEXICONANALYSER\LEXICONANALYSER\TOKEN.H
C:\USERS\KAIDEN\SOURCE\REPOS\LEXICONANALYSER\LEXICONANALYSER\CHARS.H
C:\USERS\KAIDEN\SOURCE\REPOS\LEXICONANALYSER\LEXICONANALYSER\PARAMETERLIST.H
C:\USERS\KAIDEN\SOURCE\REPOS\LEXICONANALYSER\LEXICONANALYSER\PARAMETER.H
C:\USERS\KAIDEN\SOURCE\REPOS\LEXICONANALYSER\LEXICONANALYSER\STRING.H
C:\USERS\KAIDEN\SOURCE\REPOS\LEXICONANALYSER\LEXICONANALYSER\PREDICATELIST.H
^C:\USERS\KAIDEN\SOURCE\REPOS\LEXICONANALYSER\LEXICONANALYSER\RELATIONALDATABASE.CPP
C:\USERS\KAIDEN\SOURCE\REPOS\LEXICONANALYSER\LEXICONANALYSER\X64\RELEASE\LEXICONANALYSER.PCH
C:\USERS\KAIDEN\SOURCE\REPOS\LEXICONANALYSER\LEXICONANALYSER\RELATIONALDATABASE.H
C:\PROGRAM FILES (X86)\MICROSOFT VISUAL STUDIO\2017\COMMUNITY\VC\TOOLS\MSVC\14.11.25503\INCLUDE\MAP
C:\PROGRAM FILES (X86)\MICROSOFT VISUAL STUDIO\2017\COMMUNITY\VC\TOOLS\MSVC\14.11.25503\INCLUDE\TUPLE
C:\PROGRAM FILES (X86)\MICROSOFT VISUAL STUDIO\2017\COMMUNITY\VC\TOOLS\MSVC\14.11.25503\INCLUDE\XTREE
C:\PROGRAM FILES (X86)\MICROSOFT VISUAL STUDIO\2017\COMMUNITY\VC\TOOLS\MSVC\14.11.25503\INCLUDE\FSTREAM
C:\USERS\KAIDEN\SOURCE\REPOS\LEXICONANALYSER\LEXICONANALYSER\DATALOGPARSER.H
C:\USERS\KAIDEN\SOURCE\REPOS\LEXICONANALYSER\LEXICONANALYSER\LEXER.H
C:\USERS\KAIDEN\SOURCE\REPOS\LEXICONANALYSER\LEXICONANALYSER\TOKEN.H
C:\USERS\KAIDEN\SOURCE\REPOS\LEXICONANALYSER\LEXICONANALYSER\CHARS.H
C:\USERS\KAIDEN\SOURCE\REPOS\LEXICONANALYSER\LEXICONANALYSER\SCHEMES.H
C:\USERS\KAIDEN\SOURCE\REPOS\LEXICONANALYSER\LEXICONANALYSER\SCHEME.H
C:\USERS\KAIDEN\SOURCE\REPOS\LEXICONANALYSER\LEXICONANALYSER\ID.H
C:\USERS\KAIDEN\SOURCE\REPOS\LEXICONANALYSER\LEXICONANALYSER\IDLIST.H
C:\USERS\KAIDEN\SOURCE\REPOS\LEXICONANALYSER\LEXICONANALYSER\FACTS.H
C:\USERS\KAIDEN\SOURCE\REPOS\LEXICONANALYSER\LEXICONANALYSER\FACT.H
C:\USERS\KAIDEN\SOURCE\REPOS\LEXICONANALYSER\LEXICONANALYSER\STRING.H
C:\USERS\KAIDEN\SOURCE\REPOS\LEXICONANALYSER\LEXICONANALYSER\STRINGLIST.H
C:\PROGRAM FILES (X86)\MICROSOFT VISUAL STUDIO\2017\COMMUNITY\VC\TOOLS\MSVC\14.11.25503\INCLUDE\ALGORITHM
C:\USERS\KAIDEN\SOURCE\REPOS\LEXICONANALYSER\LEXICONANALYSER\RULES.H
C:\USERS\KAIDEN\SOURCE\REPOS\LEXICONANALYSER\LEXICONANALYSER\RULE.H
C:\USERS\KAIDEN\SOURCE\REPOS\LEXICONANALYSER\LEXICONANALYSER\HEADPREDICATE.H
C:\USERS\KAIDEN\SOURCE\REPOS\LEXICONANALYSER\LEXICONANALYSER\PREDICATE.H
C:\USERS\KAIDEN\SOURCE\REPOS\LEXICONANALYSER\LEXICONANALYSER\PARAMETERLIST.H
C:\USERS\KAIDEN\SOURCE\REPOS\LEXICONANALYSER\LEXICONANALYSER\PARAMETER.H
C:\USERS\KAIDEN\SOURCE\REPOS\LEXICONANALYSER\LEXICONANALYSER\PREDICATELIST.H
C:\USERS\KAIDEN\SOURCE\REPOS\LEXICONANALYSER\LEXICONANALYSER\EXPRESSION.H
C:\USERS\KAIDEN\SOURCE\REPOS\LEXICONANALYSER\LEXICONANALYSER\QUERIES.H
C:\USERS\KAIDEN\SOURCE\REPOS\LEXICONANALYSER\LEXICONANALYSER\QUERY.H
C:\USERS\KAIDEN\SOURCE\REPOS\LEXICONANALYSER\LEXICONANALYSER\TABLE.H
C:\PROGRAM FILES (X86)\MICROSOFT VISUAL STUDIO\2017\COMMUNITY\VC\TOOLS\MSVC\14.11.25503\INCLUDE\SET
C:\USERS\KAIDEN\SOURCE\REPOS\LEXICONANALYSER\LEXICONANALYSER\ROW.H
C:\USERS\KAIDEN\SOURCE\REPOS\LEXICONANALYSER\LEXICONANALYSER\COLUMNCOLUMNPARAMETERS.H
C:\USERS\KAIDEN\SOURCE\REPOS\LEXICONANALYSER\LEXICONANALYSER\COLUMNPARAMETERS.H
C:\USERS\KAIDEN\SOURCE\REPOS\LEXICONANALYSER\LEXICONANALYSER\HEADERS.H
C:\USERS\KAIDEN\SOURCE\REPOS\LEXICONANALYSER\LEXICONANALYSER\COLUMNVALUEPARAMETERS.H
^C:\USERS\KAIDEN\SOURCE\REPOS\LEXICONANALYSER\LEXICONANALYSER\ROW.CPP
C:\USERS\KAIDEN\SOURCE\REPOS\LEXICONANALYSER\LEXICONANALYSER\X64\RELEASE\LEXICONANALYSER.PCH
C:\USERS\KAIDEN\SOURCE\REPOS\LEXICONANALYSER\LEXICONANALYSER\ROW.H
C:\PROGRAM FILES (X86)\MICROSOFT VISUAL STUDIO\2017\COMMUNITY\VC\TOOLS\MSVC\14.11.25503\INCLUDE\SET
C:\PROGRAM FILES (X86)\MICROSOFT VISUAL STUDIO\2017\COMMUNITY\VC\TOOLS\MSVC\14.11.25503\INCLUDE\XTREE
C:\USERS\KAIDEN\SOURCE\REPOS\LEXICONANALYSER\LEXICONANALYSER\COLUMNCOLUMNPARAMETERS.H
C:\USERS\KAIDEN\SOURCE\REPOS\LEXICONANALYSER\LEXICONANALYSER\COLUMNPARAMETERS.H
^C:\USERS\KAIDEN\SOURCE\REPOS\LEXICONANALYSER\LEXICONANALYSER\RULE.CPP
C:\USERS\KAIDEN\SOURCE\REPOS\LEXICONANALYSER\LEXICONANALYSER\X64\RELEASE\LEXICONANALYSER.PCH
C:\USERS\KAIDEN\SOURCE\REPOS\LEXICONANALYSER\LEXICONANALYSER\RULE.H
C:\USERS\KAIDEN\SOURCE\REPOS\LEXICONANALYSER\LEXICONANALYSER\HEADPREDICATE.H
C:\USERS\KAIDEN\SOURCE\REPOS\LEXICONANALYSER\LEXICONANALYSER\ID.H
C:\USERS\KAIDEN\SOURCE\REPOS\LEXICONANALYSER\LEXICONANALYSER\LEXER.H
C:\USERS\KAIDEN\SOURCE\REPOS\LEXICONANALYSER\LEXICONANALYSER\TOKEN.H
C:\USERS\KAIDEN\SOURCE\REPOS\LEXICONANALYSER\LEXICONANALYSER\CHARS.H
C:\USERS\KAIDEN\SOURCE\REPOS\LEXICONANALYSER\LEXICONANALYSER\IDLIST.H
C:\USERS\KAIDEN\SOURCE\REPOS\LEXICONANALYSER\LEXICONANALYSER\PREDICATE.H
C:\USERS\KAIDEN\SOURCE\REPOS\LEXICONANALYSER\LEXICONANALYSER\PARAMETERLIST.H
C:\USERS\KAIDEN\SOURCE\REPOS\LEXICONANALYSER\LEXICONANALYSER\PARAMETER.H
C:\USERS\KAIDEN\SOURCE\REPOS\LEXICONANALYSER\LEXICONANALYSER\STRING.H
C:\USERS\KAIDEN\SOURCE\REPOS\LEXICONANALYSER\LEXICONANALYSER\PREDICATELIST.H
^C:\USERS\KAIDEN\SOURCE\REPOS\LEXICONANALYSER\LEXICONANALYSER\RULES.CPP
C:\USERS\KAIDEN\SOURCE\REPOS\LEXICONANALYSER\LEXICONANALYSER\X64\RELEASE\LEXICONANALYSER.PCH
C:\USERS\KAIDEN\SOURCE\REPOS\LEXICONANALYSER\LEXICONANALYSER\RULES.H
C:\USERS\KAIDEN\SOURCE\REPOS\LEXICONANALYSER\LEXICONANALYSER\RULE.H
C:\USERS\KAIDEN\SOURCE\REPOS\LEXICONANALYSER\LEXICONANALYSER\HEADPREDICATE.H
C:\USERS\KAIDEN\SOURCE\REPOS\LEXICONANALYSER\LEXICONANALYSER\ID.H
C:\USERS\KAIDEN\SOURCE\REPOS\LEXICONANALYSER\LEXICONANALYSER\LEXER.H
C:\USERS\KAIDEN\SOURCE\REPOS\LEXICONANALYSER\LEXICONANALYSER\TOKEN.H
C:\USERS\KAIDEN\SOURCE\REPOS\LEXICONANALYSER\LEXICONANALYSER\CHARS.H
C:\USERS\KAIDEN\SOURCE\REPOS\LEXICONANALYSER\LEXICONANALYSER\IDLIST.H
C:\USERS\KAIDEN\SOURCE\REPOS\LEXICONANALYSER\LEXICONANALYSER\PREDICATE.H
C:\USERS\KAIDEN\SOURCE\REPOS\LEXICONANALYSER\LEXICONANALYSER\PARAMETERLIST.H
C:\USERS\KAIDEN\SOURCE\REPOS\LEXICONANALYSER\LEXICONANALYSER\PARAMETER.H
C:\USERS\KAIDEN\SOURCE\REPOS\LEXICONANALYSER\LEXICONANALYSER\STRING.H
C:\USERS\KAIDEN\SOURCE\REPOS\LEXICONANALYSER\LEXICONANALYSER\PREDICATELIST.H
C:\USERS\KAIDEN\SOURCE\REPOS\LEXICONANALYSER\LEXICONANALYSER\EXPRESSION.H
^C:\USERS\KAIDEN\SOURCE\REPOS\LEXICONANALYSER\LEXICONANALYSER\SCHEME.CPP
C:\USERS\KAIDEN\SOURCE\REPOS\LEXICONANALYSER\LEXICONANALYSER\X64\RELEASE\LEXICONANALYSER.PCH
C:\USERS\KAIDEN\SOURCE\REPOS\LEXICONANALYSER\LEXICONANALYSER\SCHEME.H
C:\USERS\KAIDEN\SOURCE\REPOS\LEXICONANALYSER\LEXICONANALYSER\ID.H
C:\USERS\KAIDEN\SOURCE\REPOS\LEXICONANALYSER\LEXICONANALYSER\LEXER.H
C:\USERS\KAIDEN\SOURCE\REPOS\LEXICONANALYSER\LEXICONANALYSER\TOKEN.H
C:\USERS\KAIDEN\SOURCE\REPOS\LEXICONANALYSER\LEXICONANALYSER\CHARS.H
C:\USERS\KAIDEN\SOURCE\REPOS\LEXICONANALYSER\LEXICONANALYSER\IDLIST.H
^C:\USERS\KAIDEN\SOURCE\REPOS\LEXICONANALYSER\LEXICONANALYSER\SCHEMES.CPP
C:\USERS\KAIDEN\SOURCE\REPOS\LEXICONANALYSER\LEXICONANALYSER\X64\RELEASE\LEXICONANALYSER.PCH
C:\USERS\KAIDEN\SOURCE\REPOS\LEXICONANALYSER\LEXICONANALYSER\SCHEMES.H
C:\USERS\KAIDEN\SOURCE\REPOS\LEXICONANALYSER\LEXICONANALYSER\SCHEME.H
C:\USERS\KAIDEN\SOURCE\REPOS\LEXICONANALYSER\LEXICONANALYSER\ID.H
C:\USERS\KAIDEN\SOURCE\REPOS\LEXICONANALYSER\LEXICONANALYSER\LEXER.H
C:\USERS\KAIDEN\SOURCE\REPOS\LEXICONANALYSER\LEXICONANALYSER\TOKEN.H
C:\USERS\KAIDEN\SOURCE\REPOS\LEXICONANALYSER\LEXICONANALYSER\CHARS.H
C:\USERS\KAIDEN\SOURCE\REPOS\LEXICONANALYSER\LEXICONANALYSER\IDLIST.H
^C:\USERS\KAIDEN\SOURCE\REPOS\LEXICONANALYSER\LEXICONANALYSER\STRING.CPP
C:\USERS\KAIDEN\SOURCE\REPOS\LEXICONANALYSER\LEXICONANALYSER\X64\RELEASE\LEXICONANALYSER.PCH
C:\USERS\KAIDEN\SOURCE\REPOS\LEXICONANALYSER\LEXICONANALYSER\STRING.H
C:\USERS\KAIDEN\SOURCE\REPOS\LEXICONANALYSER\LEXICONANALYSER\LEXER.H
C:\USERS\KAIDEN\SOURCE\REPOS\LEXICONANALYSER\LEXICONANALYSER\TOKEN.H
C:\USERS\KAIDEN\SOURCE\REPOS\LEXICONANALYSER\LEXICONANALYSER\CHARS.H
^C:\USERS\KAIDEN\SOURCE\REPOS\LEXICONANALYSER\LEXICONANALYSER\STRINGLIST.CPP
C:\USERS\KAIDEN\SOURCE\REPOS\LEXICONANALYSER\LEXICONANALYSER\X64\RELEASE\LEXICONANALYSER.PCH
C:\USERS\KAIDEN\SOURCE\REPOS\LEXICONANALYSER\LEXICONANALYSER\STRINGLIST.H
C:\USERS\KAIDEN\SOURCE\REPOS\LEXICONANALYSER\LEXICONANALYSER\STRING.H
C:\USERS\KAIDEN\SOURCE\REPOS\LEXICONANALYSER\LEXICONANALYSER\LEXER.H
C:\USERS\KAIDEN\SOURCE\REPOS\LEXICONANALYSER\LEXICONANALYSER\TOKEN.H
C:\USERS\KAIDEN\SOURCE\REPOS\LEXICONANALYSER\LEXICONANALYSER\CHARS.H
^C:\USERS\KAIDEN\SOURCE\REPOS\LEXICONANALYSER\LEXICONANALYSER\TABLE.CPP
C:\USERS\KAIDEN\SOURCE\REPOS\LEXICONANALYSER\LEXICONANALYSER\X64\RELEASE\LEXICONANALYSER.PCH
C:\USERS\KAIDEN\SOURCE\REPOS\LEXICONANALYSER\LEXICONANALYSER\TABLE.H
C:\PROGRAM FILES (X86)\MICROSOFT VISUAL STUDIO\2017\COMMUNITY\VC\TOOLS\MSVC\14.11.25503\INCLUDE\SET
C:\PROGRAM FILES (X86)\MICROSOFT VISUAL STUDIO\2017\COMMUNITY\VC\TOOLS\MSVC\14.11.25503\INCLUDE\XTREE
C:\USERS\KAIDEN\SOURCE\REPOS\LEXICONANALYSER\LEXICONANALYSER\ROW.H
C:\USERS\KAIDEN\SOURCE\REPOS\LEXICONANALYSER\LEXICONANALYSER\COLUMNCOLUMNPARAMETERS.H
C:\USERS\KAIDEN\SOURCE\REPOS\LEXICONANALYSER\LEXICONANALYSER\COLUMNPARAMETERS.H
C:\USERS\KAIDEN\SOURCE\REPOS\LEXICONANALYSER\LEXICONANALYSER\HEADERS.H
C:\USERS\KAIDEN\SOURCE\REPOS\LEXICONANALYSER\LEXICONANALYSER\COLUMNVALUEPARAMETERS.H
^C:\USERS\KAIDEN\SOURCE\REPOS\LEXICONANALYSER\LEXICONANALYSER\TOKEN.CPP
C:\USERS\KAIDEN\SOURCE\REPOS\LEXICONANALYSER\LEXICONANALYSER\X64\RELEASE\LEXICONANALYSER.PCH
C:\USERS\KAIDEN\SOURCE\REPOS\LEXICONANALYSER\LEXICONANALYSER\TOKEN.H
