^C:\USERS\KAIDEN\SOURCE\REPOS\LEXICONANALYSER\LEXICONANALYSER\X64\RELEASE\CHARS.OBJ|C:\USERS\KAIDEN\SOURCE\REPOS\LEXICONANALYSER\LEXICONANALYSER\X64\RELEASE\COLUMNCOLUMNPARAMETERS.OBJ|C:\USERS\KAIDEN\SOURCE\REPOS\LEXICONANALYSER\LEXICONANALYSER\X64\RELEASE\COLUMNPARAMETERS.OBJ|C:\USERS\KAIDEN\SOURCE\REPOS\LEXICONANALYSER\LEXICONANALYSER\X64\RELEASE\COLUMNVALUEPARAMETERS.OBJ|C:\USERS\KAIDEN\SOURCE\REPOS\LEXICONANALYSER\LEXICONANALYSER\X64\RELEASE\DATALOGPARSER.OBJ|C:\USERS\KAIDEN\SOURCE\REPOS\LEXICONANALYSER\LEXICONANALYSER\X64\RELEASE\EXPRESSION.OBJ|C:\USERS\KAIDEN\SOURCE\REPOS\LEXICONANALYSER\LEXICONANALYSER\X64\RELEASE\FACT.OBJ|C:\USERS\KAIDEN\SOURCE\REPOS\LEXICONANALYSER\LEXICONANALYSER\X64\RELEASE\FACTS.OBJ|C:\USERS\KAIDEN\SOURCE\REPOS\LEXICONANALYSER\LEXICONANALYSER\X64\RELEASE\HEADERS.OBJ|C:\USERS\KAIDEN\SOURCE\REPOS\LEXICONANALYSER\LEXICONANALYSER\X64\RELEASE\HEADPREDICATE.OBJ|C:\USERS\KAIDEN\SOURCE\REPOS\LEXICONANALYSER\LEXICONANALYSER\X64\RELEASE\ID.OBJ|C:\USERS\KAIDEN\SOURCE\REPOS\LEXICONANALYSER\LEXICONANALYSER\X64\RELEASE\IDLIST.OBJ|C:\USERS\KAIDEN\SOURCE\REPOS\LEXICONANALYSER\LEXICONANALYSER\X64\RELEASE\LEXER.OBJ|C:\USERS\KAIDEN\SOURCE\REPOS\LEXICONANALYSER\LEXICONANALYSER\X64\RELEASE\LEXICONANALYSER.OBJ|C:\USERS\KAIDEN\SOURCE\REPOS\LEXICONANALYSER\LEXICONANALYSER\X64\RELEASE\PARAMETER.OBJ|C:\USERS\KAIDEN\SOURCE\REPOS\LEXICONANALYSER\LEXICONANALYSER\X64\RELEASE\PARAMETERLIST.OBJ|C:\USERS\KAIDEN\SOURCE\REPOS\LEXICONANALYSER\LEXICONANALYSER\X64\RELEASE\PREDICATE.OBJ|C:\USERS\KAIDEN\SOURCE\REPOS\LEXICONANALYSER\LEXICONANALYSER\X64\RELEASE\PREDICATELIST.OBJ|C:\USERS\KAIDEN\SOURCE\REPOS\LEXICONANALYSER\LEXICONANALYSER\X64\RELEASE\QUERIES.OBJ|C:\USERS\KAIDEN\SOURCE\REPOS\LEXICONANALYSER\LEXICONANALYSER\X64\RELEASE\QUERY.OBJ|C:\USERS\KAIDEN\SOURCE\REPOS\LEXICONANALYSER\LEXICONANALYSER\X64\RELEASE\RELATIONALDATABASE.OBJ|C:\USERS\KAIDEN\SOURCE\REPOS\LEXICONANALYSER\LEXICONANALYSER\X64\RELEASE\ROW.OBJ|C:\USERS\KAIDEN\SOURCE\REPOS\LEXICONANALYSER\LEXICONANALYSER\X64\RELEASE\RULE.OBJ|C:\USERS\KAIDEN\SOURCE\REPOS\LEXICONANALYSER\LEXICONANALYSER\X64\RELEASE\RULES.OBJ|C:\USERS\KAIDEN\SOURCE\REPOS\LEXICONANALYSER\LEXICONANALYSER\X64\RELEASE\SCHEME.OBJ|C:\USERS\KAIDEN\SOURCE\REPOS\LEXICONANALYSER\LEXICONANALYSER\X64\RELEASE\SCHEMES.OBJ|C:\USERS\KAIDEN\SOURCE\REPOS\LEXICONANALYSER\LEXICONANALYSER\X64\RELEASE\STDAFX.OBJ|C:\USERS\KAIDEN\SOURCE\REPOS\LEXICONANALYSER\LEXICONANALYSER\X64\RELEASE\STRING.OBJ|C:\USERS\KAIDEN\SOURCE\REPOS\LEXICONANALYSER\LEXICONANALYSER\X64\RELEASE\STRINGLIST.OBJ|C:\USERS\KAIDEN\SOURCE\REPOS\LEXICONANALYSER\LEXICONANALYSER\X64\RELEASE\TABLE.OBJ|C:\USERS\KAIDEN\SOURCE\REPOS\LEXICONANALYSER\LEXICONANALYSER\X64\RELEASE\TOKEN.OBJ
C:\USERS\KAIDEN\SOURCE\REPOS\LEXICONANALYSER\X64\RELEASE\LEXICONANALYSER.EXE
C:\USERS\KAIDEN\SOURCE\REPOS\LEXICONANALYSER\X64\RELEASE\LEXICONANALYSER.PDB
