^C:\USERS\KAIDEN\SOURCE\REPOS\LEXICONANALYSER\LEXICONANALYSER\DEBUG\ADJACENCYGRAPH.OBJ|C:\USERS\KAIDEN\SOURCE\REPOS\LEXICONANALYSER\LEXICONANALYSER\DEBUG\CHARS.OBJ|C:\USERS\KAIDEN\SOURCE\REPOS\LEXICONANALYSER\LEXICONANALYSER\DEBUG\COLUMNCOLUMNPARAMETERS.OBJ|C:\USERS\KAIDEN\SOURCE\REPOS\LEXICONANALYSER\LEXICONANALYSER\DEBUG\COLUMNPARAMETERS.OBJ|C:\USERS\KAIDEN\SOURCE\REPOS\LEXICONANALYSER\LEXICONANALYSER\DEBUG\COLUMNVALUEPARAMETERS.OBJ|C:\USERS\KAIDEN\SOURCE\REPOS\LEXICONANALYSER\LEXICONANALYSER\DEBUG\DATALOGPARSER.OBJ|C:\USERS\KAIDEN\SOURCE\REPOS\LEXICONANALYSER\LEXICONANALYSER\DEBUG\DFSFOREST.OBJ|C:\USERS\KAIDEN\SOURCE\REPOS\LEXICONANALYSER\LEXICONANALYSER\DEBUG\EXPRESSION.OBJ|C:\USERS\KAIDEN\SOURCE\REPOS\LEXICONANALYSER\LEXICONANALYSER\DEBUG\FACT.OBJ|C:\USERS\KAIDEN\SOURCE\REPOS\LEXICONANALYSER\LEXICONANALYSER\DEBUG\FACTS.OBJ|C:\USERS\KAIDEN\SOURCE\REPOS\LEXICONANALYSER\LEXICONANALYSER\DEBUG\HEADERS.OBJ|C:\USERS\KAIDEN\SOURCE\REPOS\LEXICONANALYSER\LEXICONANALYSER\DEBUG\HEADPREDICATE.OBJ|C:\USERS\KAIDEN\SOURCE\REPOS\LEXICONANALYSER\LEXICONANALYSER\DEBUG\ID.OBJ|C:\USERS\KAIDEN\SOURCE\REPOS\LEXICONANALYSER\LEXICONANALYSER\DEBUG\IDLIST.OBJ|C:\USERS\KAIDEN\SOURCE\REPOS\LEXICONANALYSER\LEXICONANALYSER\DEBUG\LEXER.OBJ|C:\USERS\KAIDEN\SOURCE\REPOS\LEXICONANALYSER\LEXICONANALYSER\DEBUG\LEXICONANALYSER.OBJ|C:\USERS\KAIDEN\SOURCE\REPOS\LEXICONANALYSER\LEXICONANALYSER\DEBUG\PARAMETER.OBJ|C:\USERS\KAIDEN\SOURCE\REPOS\LEXICONANALYSER\LEXICONANALYSER\DEBUG\PARAMETERLIST.OBJ|C:\USERS\KAIDEN\SOURCE\REPOS\LEXICONANALYSER\LEXICONANALYSER\DEBUG\PREDICATE.OBJ|C:\USERS\KAIDEN\SOURCE\REPOS\LEXICONANALYSER\LEXICONANALYSER\DEBUG\PREDICATELIST.OBJ|C:\USERS\KAIDEN\SOURCE\REPOS\LEXICONANALYSER\LEXICONANALYSER\DEBUG\QUERIES.OBJ|C:\USERS\KAIDEN\SOURCE\REPOS\LEXICONANALYSER\LEXICONANALYSER\DEBUG\QUERY.OBJ|C:\USERS\KAIDEN\SOURCE\REPOS\LEXICONANALYSER\LEXICONANALYSER\DEBUG\RELATIONALDATABASE.OBJ|C:\USERS\KAIDEN\SOURCE\REPOS\LEXICONANALYSER\LEXICONANALYSER\DEBUG\ROW.OBJ|C:\USERS\KAIDEN\SOURCE\REPOS\LEXICONANALYSER\LEXICONANALYSER\DEBUG\RULE.OBJ|C:\USERS\KAIDEN\SOURCE\REPOS\LEXICONANALYSER\LEXICONANALYSER\DEBUG\RULES.OBJ|C:\USERS\KAIDEN\SOURCE\REPOS\LEXICONANALYSER\LEXICONANALYSER\DEBUG\SCHEME.OBJ|C:\USERS\KAIDEN\SOURCE\REPOS\LEXICONANALYSER\LEXICONANALYSER\DEBUG\SCHEMES.OBJ|C:\USERS\KAIDEN\SOURCE\REPOS\LEXICONANALYSER\LEXICONANALYSER\DEBUG\STDAFX.OBJ|C:\USERS\KAIDEN\SOURCE\REPOS\LEXICONANALYSER\LEXICONANALYSER\DEBUG\STRING.OBJ|C:\USERS\KAIDEN\SOURCE\REPOS\LEXICONANALYSER\LEXICONANALYSER\DEBUG\STRINGLIST.OBJ|C:\USERS\KAIDEN\SOURCE\REPOS\LEXICONANALYSER\LEXICONANALYSER\DEBUG\TABLE.OBJ|C:\USERS\KAIDEN\SOURCE\REPOS\LEXICONANALYSER\LEXICONANALYSER\DEBUG\TOKEN.OBJ
C:\USERS\KAIDEN\SOURCE\REPOS\LEXICONANALYSER\DEBUG\LEXICONANALYSER.EXE
C:\USERS\KAIDEN\SOURCE\REPOS\LEXICONANALYSER\DEBUG\LEXICONANALYSER.ILK
C:\USERS\KAIDEN\SOURCE\REPOS\LEXICONANALYSER\DEBUG\LEXICONANALYSER.PDB
